Mask stage: 0
NTC Temperature: 25.473547C 

Mask stage: 1
NTC Temperature: 24.597326C 

Mask stage: 2
NTC Temperature: 25.398809C 

Mask stage: 3
NTC Temperature: 25.413092C 

Mask stage: 4
NTC Temperature: 25.416723C 

Mask stage: 5
NTC Temperature: 25.410467C 

Mask stage: 6
NTC Temperature: 25.413244C 

Mask stage: 7
NTC Temperature: 25.43833C 

Mask stage: 8
NTC Temperature: 25.275549C 

Mask stage: 9
NTC Temperature: 25.469091C 

Mask stage: 10
NTC Temperature: 25.448553C 

Mask stage: 11
NTC Temperature: 24.603552C 

Mask stage: 12
NTC Temperature: 25.456121C 

Mask stage: 13
NTC Temperature: 25.478338C 

Mask stage: 14
NTC Temperature: 25.465857C 

Mask stage: 15
NTC Temperature: 25.421728C 

Mask stage: 16
NTC Temperature: 25.47785C 

Mask stage: 17
NTC Temperature: 25.478338C 

Mask stage: 18
NTC Temperature: 25.488928C 

Mask stage: 19
NTC Temperature: 25.45249C 

Mask stage: 20
NTC Temperature: 25.466314C 

Mask stage: 21
NTC Temperature: 25.501898C 

Mask stage: 22
NTC Temperature: 25.466925C 

Mask stage: 23
NTC Temperature: 25.474615C 

Mask stage: 24
NTC Temperature: 25.451544C 

Mask stage: 25
NTC Temperature: 25.452368C 

Mask stage: 26
NTC Temperature: 25.484228C 

Mask stage: 27
NTC Temperature: 25.354559C 

Mask stage: 28
NTC Temperature: 25.473669C 

Mask stage: 29
NTC Temperature: 25.453955C 

Mask stage: 30
NTC Temperature: 25.377356C 

Mask stage: 31
NTC Temperature: 25.459478C 

FE chip: 0
NTC Temperature: 25.459478C 

