##-----------------------------------------------------------------------------
## Title         : Xilinx trace options file
##-----------------------------------------------------------------------------
-intstyle silent
-l 30
-v 30
-tsi DpmTest.tsi
